{
    "KPlugin": {
        "Description": "Adds an inline Color preview/picker to colors in the text (e.g. #FFFFFF, white)",
        "Description[az]": "Mətndəki sətirdaxili rəng önizləməsi əlavə edir/mətndəki rəngləri seçə vasitəsi (məs., #FFFFFF, ağ rəng)",
        "Description[bg]": "Добавя възможност за преглед и избор на цвят в текста (напр.. #FFFFFF, бял)",
        "Description[ca@valencia]": "Afig una vista prèvia/selector de colors inclòs per als colors del text (p. ex., #FFFFFF, blanc)",
        "Description[ca]": "Afegeix una vista prèvia/selector de colors inclòs per als colors del text (p. ex., #FFFFFF, blanc)",
        "Description[de]": "Fügt eine Farbvorschau/Farbauswahl für Farben wie #FFFFFF, white am Zeilenende ein",
        "Description[el]": "Προσθέτει ένα εμβόλιμο εργαλείο προεπισκόπησης/επιλογής χρώματος στα χρώματα του κειμένου (π.χ. #FFFFFF, λευκό)",
        "Description[en_GB]": "Adds an inline Colour preview/picker to colours in the text (e.g. #FFFFFF, white)",
        "Description[es]": "Añade una vista previa/selector de color en línea a los colores del texto (por ejemplo: #FFFFFF, blanco)",
        "Description[eu]": "Testuko koloreei lerro barruko Kolore aurreikuspegi/hautatzaile bat gehitzen die (adib. #FFFFFF, zuria)",
        "Description[fi]": "Lisää tekstin väreille (esim. #FFFFFF, white) upotetun väriesikatselun/-valitsimen",
        "Description[fr]": "Ajoute un aperçu intégré / sélecteur de couleurs pour les couleurs dans le texte (par exemple #FFFFFF, blanc)",
        "Description[hu]": "Beágyazott színválasztó a szövegben lévő színekhez (például #FFFFFF, fehér)",
        "Description[ia]": "Adde un vista preliminari/selectionator de Color a lolores in le texto (p.ex. #FFFFFF, blanco)",
        "Description[it]": "Aggiunge nelle righe del testo un'anteprima colore/selettore (ad es. #FFFFFF, bianco)",
        "Description[ko]": "문자열 내 인라인 색상 미리 보기/선택기 추가(예: #FFFFFF, 흰색)",
        "Description[nl]": "Voegt een inline kleurenvoorbeeld/kiezer toe aan kleuren in de tekst (bijv. #FFFFFF, wit)",
        "Description[pl]": "Dodaje wbudowany wybierak barwy dla barw tekstu (np. #FFFFFF, biały)",
        "Description[pt]": "Adiciona uma antevisão/selector de cores incorporado para as cores no texto (p.ex. #FFFFFF, white)",
        "Description[ru]": "Добавление в текст встроенного средства предварительного просмотра и выбора цвета (например, #FFFFFF, white (белый))",
        "Description[sk]": "Pridá vložený náhľad/výber farieb na farby v texte (napr. #FFFFFF,biela)",
        "Description[sl]": "Doda besedilu vrstni predogled/izbirnik barv (npr. #FFFFFF, bela)",
        "Description[sv]": "Lägger till en färggranskare/färghämtare på plats i texten (t.ex. #FFFFFF, vit)",
        "Description[tr]": "Metindeki renklere satır içi renk önizleyici/seçici ekler (örn. #FFFFFF, beyaz)",
        "Description[uk]": "Додає вбудовану панель попереднього перегляду і піпетку для кольорів у тексті (наприклад, #FFFFFF, білого)",
        "Description[vi]": "Thêm một bộ xem thử / nhặt màu tại chỗ cho các màu trong văn bản (vd. #FFFFFF, trắng)",
        "Description[x-test]": "xxAdds an inline Color preview/picker to colors in the text (e.g. #FFFFFF, white)xx",
        "Description[zh_CN]": "在文本中添加内联的颜色预览/拾色器 (例如 #FFFFFF, 白色)",
        "Name": "Color Picker",
        "Name[ar]": "منتق الألوان",
        "Name[az]": "Rəng seçici",
        "Name[bg]": "Избиране на цвят",
        "Name[ca@valencia]": "Selector de color",
        "Name[ca]": "Selector de color",
        "Name[cs]": "Kapátko",
        "Name[de]": "Farbauswahl",
        "Name[el]": "Επιλογέας χρωμάτων",
        "Name[en_GB]": "Colour Picker",
        "Name[es]": "Selector de color",
        "Name[eu]": "Kolore hautatzailea",
        "Name[fi]": "Värivalinta",
        "Name[fr]": "Sélecteur de couleurs",
        "Name[hu]": "Színválasztó",
        "Name[ia]": "Selectionator de color",
        "Name[it]": "Selettore di colore",
        "Name[ka]": "ფერის ამრჩევი",
        "Name[ko]": "색상 선택기",
        "Name[my]": "အရောင်ရွေးကိရိယာ",
        "Name[nl]": "Kleurenkiezer",
        "Name[pl]": "Wybierak barwy",
        "Name[pt]": "Selector de Cores",
        "Name[pt_BR]": "Seletor de cores",
        "Name[ru]": "Выбор цвета",
        "Name[sk]": "Výber farby",
        "Name[sl]": "Izbirnik barv",
        "Name[sv]": "Färgväljare",
        "Name[tr]": "Renk Seçici",
        "Name[uk]": "Піпетка",
        "Name[vi]": "Trình nhặt màu",
        "Name[x-test]": "xxColor Pickerxx",
        "Name[zh_CN]": "拾色器",
        "ServiceTypes": [
            "KTextEditor/Plugin"
        ]
    }
}
